module go-app

go 1.22.2

require (
	github.com/DATA-DOG/go-sqlmock v1.5.2
	github.com/gin-gonic/gin v1.9.1
	github.com/golang/mock v1.6.0
	github.com/google/uuid v1.6.0
	github.com/jackc/pgx/v5 v5.5.4
	github.com/newrelic/go-agent/v3 v3.32.0
	github.com/newrelic/go-agent/v3/integrations/logcontext-v2/nrzap v1.1.0
	github.com/prometheus/client_golang v1.19.0
	github.com/sethvargo/go-envconfig v1.0.1
	github.com/stretchr/testify v1.9.0
	github.com/testcontainers/testcontainers-go v0.31.0
	github.com/testcontainers/testcontainers-go/modules/postgres v0.31.0
	go.uber.org/zap v1.27.0
	gorm.io/driver/postgres v1.5.7
	gorm.io/gorm v1.25.9
)

require (
	dario.cat/mergo v1.0.0 // indirect
	github.com/Azure/go-ansiterm v0.0.0-20210617225240-d185dfc1b5a1 // indirect
	github.com/Microsoft/go-winio v0.6.1 // indirect
	github.com/Microsoft/hcsshim v0.11.4 // indirect
	github.com/beorn7/perks v1.0.1 // indirect
	github.com/bytedance/sonic v1.9.1 // indirect
	github.com/cenkalti/backoff/v4 v4.2.1 // indirect
	github.com/cespare/xxhash/v2 v2.2.0 // indirect
	github.com/chenzhuoyu/base64x v0.0.0-20221115062448-fe3a3abad311 // indirect
	github.com/containerd/containerd v1.7.15 // indirect
	github.com/containerd/log v0.1.0 // indirect
	github.com/cpuguy83/dockercfg v0.3.1 // indirect
	github.com/davecgh/go-spew v1.1.1 // indirect
	github.com/distribution/reference v0.5.0 // indirect
	github.com/docker/docker v25.0.5+incompatible // indirect
	github.com/docker/go-connections v0.5.0 // indirect
	github.com/docker/go-units v0.5.0 // indirect
	github.com/felixge/httpsnoop v1.0.4 // indirect
	github.com/gabriel-vasile/mimetype v1.4.2 // indirect
	github.com/gin-contrib/sse v0.1.0 // indirect
	github.com/go-logr/logr v1.4.1 // indirect
	github.com/go-logr/stdr v1.2.2 // indirect
	github.com/go-ole/go-ole v1.2.6 // indirect
	github.com/go-playground/locales v0.14.1 // indirect
	github.com/go-playground/universal-translator v0.18.1 // indirect
	github.com/go-playground/validator/v10 v10.14.0 // indirect
	github.com/goccy/go-json v0.10.2 // indirect
	github.com/gogo/protobuf v1.3.2 // indirect
	github.com/golang/protobuf v1.5.4 // indirect
	github.com/jackc/pgpassfile v1.0.0 // indirect
	github.com/jackc/pgservicefile v0.0.0-20221227161230-091c0ba34f0a // indirect
	github.com/jackc/puddle/v2 v2.2.1 // indirect
	github.com/jinzhu/inflection v1.0.0 // indirect
	github.com/jinzhu/now v1.1.5 // indirect
	github.com/json-iterator/go v1.1.12 // indirect
	github.com/klauspost/compress v1.16.0 // indirect
	github.com/klauspost/cpuid/v2 v2.2.4 // indirect
	github.com/leodido/go-urn v1.2.4 // indirect
	github.com/lufia/plan9stats v0.0.0-20211012122336-39d0f177ccd0 // indirect
	github.com/magiconair/properties v1.8.7 // indirect
	github.com/mattn/go-isatty v0.0.19 // indirect
	github.com/moby/patternmatcher v0.6.0 // indirect
	github.com/moby/sys/sequential v0.5.0 // indirect
	github.com/moby/sys/user v0.1.0 // indirect
	github.com/moby/term v0.5.0 // indirect
	github.com/modern-go/concurrent v0.0.0-20180306012644-bacd9c7ef1dd // indirect
	github.com/modern-go/reflect2 v1.0.2 // indirect
	github.com/morikuni/aec v1.0.0 // indirect
	github.com/opencontainers/go-digest v1.0.0 // indirect
	github.com/opencontainers/image-spec v1.1.0 // indirect
	github.com/pelletier/go-toml/v2 v2.0.8 // indirect
	github.com/pkg/errors v0.9.1 // indirect
	github.com/pmezard/go-difflib v1.0.0 // indirect
	github.com/power-devops/perfstat v0.0.0-20210106213030-5aafc221ea8c // indirect
	github.com/prometheus/client_model v0.5.0 // indirect
	github.com/prometheus/common v0.48.0 // indirect
	github.com/prometheus/procfs v0.12.0 // indirect
	github.com/shirou/gopsutil/v3 v3.23.12 // indirect
	github.com/shoenig/go-m1cpu v0.1.6 // indirect
	github.com/sirupsen/logrus v1.9.3 // indirect
	github.com/tklauser/go-sysconf v0.3.12 // indirect
	github.com/tklauser/numcpus v0.6.1 // indirect
	github.com/twitchyliquid64/golang-asm v0.15.1 // indirect
	github.com/ugorji/go/codec v1.2.11 // indirect
	github.com/yusufpapurcu/wmi v1.2.3 // indirect
	go.opentelemetry.io/contrib/instrumentation/net/http/otelhttp v0.49.0 // indirect
	go.opentelemetry.io/otel v1.24.0 // indirect
	go.opentelemetry.io/otel/metric v1.24.0 // indirect
	go.opentelemetry.io/otel/trace v1.24.0 // indirect
	go.uber.org/multierr v1.10.0 // indirect
	golang.org/x/arch v0.3.0 // indirect
	golang.org/x/crypto v0.22.0 // indirect
	golang.org/x/mod v0.16.0 // indirect
	golang.org/x/net v0.21.0 // indirect
	golang.org/x/sync v0.3.0 // indirect
	golang.org/x/sys v0.19.0 // indirect
	golang.org/x/text v0.14.0 // indirect
	golang.org/x/tools v0.13.0 // indirect
	google.golang.org/genproto/googleapis/rpc v0.0.0-20230731190214-cbb8c96f2d6d // indirect
	google.golang.org/grpc v1.58.3 // indirect
	google.golang.org/protobuf v1.33.0 // indirect
	gopkg.in/yaml.v3 v3.0.1 // indirect
)
